{
  "type": "service_account",
  "project_id": "cod-vaccination-solution",
  "private_key_id": "b281715956bb6e115f134779e0d2d12c209c9038",
  "private_key": "-----BEGIN PRIVATE KEY-----\nMIIEvgIBADANBgkqhkiG9w0BAQEFAASCBKgwggSkAgEAAoIBAQC7ZCsoPDFjsBKs\nQticg4+EQfOWNOW2YkBbbhi5D8nldeS8btiW8w3ECpfop261/Mkcavc2LUN43987\nLWLBnFkllgUxC6yoaCF+bt9jMAqd8De9y9GjPSihHAwD1RyUfwOtlmgeWQwxyhdd\n2MlPghY1nodm0CDR7qSVazSZAQqv2cEqNha9PiZ9KW5T/SvqgOjMdQrOdIL3wRgH\nvlt9KT8rZR6suifvxRV4wMgxwwpLcs6NOsnsbruPsoHUY8exbFtua4ODWSVC4etj\n/fBW6frMLJwXjwFOQRPW998eVnCX8LL5RD6aYZa7EduhzhTcPR/Xep+b0DraiTYw\nMqkHexYtAgMBAAECggEAH7x+96U8Gx1AiFaY32cDmRtfUO7cAafBrQpoGv2CzL8K\n8mPWgDghOnSt1gv3OtCZUdwGyrDfRrspkBjnaxFa4rv13KDUyL+7/nDyGdcS0T1T\n/2ujsUEEHscEfOismrSpL46zywH7R/ppOy5iJ7pJHyMeXOn+SPeg/aJGqewMfov5\nE4K6UYvtgiQROx0g05hmvUtDs9Wmx/apQD35zTnS2jRYLNYDhaNXmYXC7oLZj+wF\nDBc6943JkPBHF2XQ42eNdTIQE26sojK3tl9rIAD09Qwwv0PPF/sQsQR3ole5yIjr\naF16CnIu02gf0RBfBge9KFvKrRUaqBOR0axFNFvVkQKBgQDcaB285tNAhoaOlKJv\nRShGxkJHamoJUsJFHgyVriPn6NaxXRddO61+uwIR7Myh2Tb3p8MxWVOac6+W1k+3\nYK0uWtTaJZ+Cqb9ts4WVglFelABnXMmjwr9IrElWbIpQMAWzm1oQLSAxeFh/Yq02\ntBYOunAXyzOOuN39QpHRoZ5TvQKBgQDZpyeGjy69HUj3HookT3isaQqo4yLYll41\nXFT3JR+8jDD+t8M2YI4isFvxz2g94r8xc4b9hCMOFmGnues1rkfscxHfTwEPGlWq\n7DjG+IGAGQgzeTzAS5LwLYJhBxroGt2sW0JdhsnhQ/iAFycvfCdW283UVDNjbvV8\nsrI0xCq7MQKBgQCv2WHglUl28d3pZC01GbhIv2WiFQUE60KUYqUnxwhevyaL2/oI\nKNUDh7DfHE8n0mZIsVDKzrolQKeXcOWpKTkDAvVQFzRsy4IvxEuQPakuDGdGEIHQ\nZlC3ar4YdgDkeWwTIJ96yIYm8h2phNEuFACFP7qvQTChbl2u8q3k002/AQKBgHd2\nUrB9eFbecwUIIyRo5kAja3FlMeQVLGI3an84RiIUBHRaYnA/MOSDTgP8JigJg41d\n7pLJawA5cqI/3oTZQqraQc4Cq/8hIjItc8Bp95JaqvCts5WMJXtkTzJ4VuFclZ0b\nfeKdr8LPrt6HVr+ucl0vSdsn2AjUhzNJVZy2qwmRAoGBAIHf7IhwdZVCOcG0zWcg\naIJ2S32f5ydaShEgi3argKuB3BHU4j7hoZK42FY6G3brt7iYFVOl4ZbVmk+R+GV7\nJE+s8IG/f+nwr7Mq6EuRzkLSboYb+ZbLul8xoa7EDWiWZn+6v+UkrztPUU0MXNxy\nFsaEa3gxV52OSyy/TeNBTwRp\n-----END PRIVATE KEY-----\n",
  "client_email": "firebase-adminsdk-nxwbz@cod-vaccination-solution.iam.gserviceaccount.com",
  "client_id": "117059874035260496967",
  "auth_uri": "https://accounts.google.com/o/oauth2/auth",
  "token_uri": "https://oauth2.googleapis.com/token",
  "auth_provider_x509_cert_url": "https://www.googleapis.com/oauth2/v1/certs",
  "client_x509_cert_url": "https://www.googleapis.com/robot/v1/metadata/x509/firebase-adminsdk-nxwbz%40cod-vaccination-solution.iam.gserviceaccount.com"
}
